Analyse der Framingham Heart Study
…
full_data

# A tibble: 11,627 × 39
   RANDID SEX    TOTCHOL   AGE SYSBP DIABP CURSMOKE CIGPDAY   BMI DIABE…¹ BPMEDS
    <int> <fct>    <int> <int> <dbl> <dbl> <lgl>      <int> <dbl> <lgl>   <lgl> 
 1   2448 MALE       195    39  106   70   FALSE          0  27.0 FALSE   FALSE 
 2   2448 MALE       209    52  121   66   FALSE          0  NA   FALSE   FALSE 
 3   6238 FEMALE     250    46  121   81   FALSE          0  28.7 FALSE   FALSE 
 4   6238 FEMALE     260    52  105   69.5 FALSE          0  29.4 FALSE   FALSE 
 5   6238 FEMALE     237    58  108   66   FALSE          0  28.5 FALSE   FALSE 
 6   9428 MALE       245    48  128.  80   TRUE          20  25.3 FALSE   FALSE 
 7   9428 MALE       283    54  141   89   TRUE          30  25.3 FALSE   FALSE 
 8  10552 FEMALE     225    61  150   95   TRUE          30  28.6 FALSE   FALSE 
 9  10552 FEMALE     232    67  183  109   TRUE          20  30.2 FALSE   FALSE 
10  11252 FEMALE     285    46  130   84   TRUE          23  23.1 FALSE   FALSE 
# … with 11,617 more rows, 28 more variables: HEARTRTE <int>, GLUCOSE <int>,
#   EDUC <fct>, PREVCHD <lgl>, PREVAP <lgl>, PREVMI <lgl>, PREVSTRK <lgl>,
#   PREVHYP <lgl>, TIME <int>, PERIOD <fct>, HDLC <int>, LDLC <int>,
#   DEATH <lgl>, ANGINA <lgl>, HOSPMI <lgl>, MI_FCHD <lgl>, ANYCHD <lgl>,
#   STROKE <lgl>, CVD <lgl>, HYPERTEN <lgl>, TIMEAP <int>, TIMEMI <int>,
#   TIMEMIFC <int>, TIMECHD <int>, TIMESTRK <int>, TIMECVD <int>,
#   TIMEDTH <int>, TIMEHYP <int>, and abbreviated variable name ¹​DIABETES
…
